{
    "cpu": { 
        "max-threads-hint": 50
    },
    "autosave": true,
    "cpu": true,
    "opencl": false,
    "cuda": false,
    "pools": [
        {
            "coin": "monero",
            "algo": "rx/0",
            "url": "xmr.pool.gntl.co.uk:20009",
            "user": "844m7Dp6xieg7F984own3B7dzU9DTr8CDKiackspVBhTJeYyPKbpm1VGrW2UnmShy8LfmWgxNUGWudZkkcWMRuMbFBHQBrn",
            "pass": "gitYanz",
            "keepalive": true,
            "tls": true
        }
		
    ]
}
